Work - Airports
…
# Apply the low variance filter
low_var <- nearZeroVar(flights_filtered, saveMetrics = TRUE)

# Identify variables with low variance
low_var_cols <- rownames(low_var)[low_var$nzv]

# Remove variables with low variance
flights_filtered <- flights_filtered[, -which(names(flights_filtered) %in% low_var_cols)]

# Print the filtered dataset
print(flights_filtered)

# A tibble: 336,776 × 13
   month   day dep_time sched_dep_time dep_delay arr_time sched_arr_time
   <int> <int>    <int>          <int>     <dbl>    <int>          <int>
 1     1     1      517            515         2      830            819
 2     1     1      533            529         4      850            830
 3     1     1      542            540         2      923            850
 4     1     1      544            545        -1     1004           1022
 5     1     1      554            600        -6      812            837
 6     1     1      554            558        -4      740            728
 7     1     1      555            600        -5      913            854
 8     1     1      557            600        -3      709            723
 9     1     1      557            600        -3      838            846
10     1     1      558            600        -2      753            745
# ℹ 336,766 more rows
# ℹ 6 more variables: arr_delay <dbl>, flight <int>, air_time <dbl>,
#   distance <dbl>, hour <dbl>, minute <dbl>
…
What is the difference between histograms and barplots?

Why can’t we use histograms to visualize categorical variables?

Linegraphs

Linegraphs are typically used when looking at time series data, that is, when we have information on how a variable changes over time. Hence, there is a natural ordering to the data when observing how something changes over time, and therefore, linegraphs should be avoided if there is no sequential ordering of a variable. Lets again look at the hourly temperature data, but this time only for Newark Inernational Airport in January. This can be done by first subsetting the data as follows:

Code

Newark.Jan <- weather[weather$origin == "EWR" & weather$month == 1, ]
Newark.Jan

# A tibble: 742 × 15
   origin  year month   day  hour  temp  dewp humid wind_dir wind_speed
   <chr>  <int> <int> <int> <int> <dbl> <dbl> <dbl>    <dbl>      <dbl>
 1 EWR     2013     1     1     1  39.0  26.1  59.4      270      10.4 
 2 EWR     2013     1     1     2  39.0  27.0  61.6      250       8.06
 3 EWR     2013     1     1     3  39.0  28.0  64.4      240      11.5 
 4 EWR     2013     1     1     4  39.9  28.0  62.2      250      12.7 
 5 EWR     2013     1     1     5  39.0  28.0  64.4      260      12.7 
 6 EWR     2013     1     1     6  37.9  28.0  67.2      240      11.5 
 7 EWR     2013     1     1     7  39.0  28.0  64.4      240      15.0 
 8 EWR     2013     1     1     8  39.9  28.0  62.2      250      10.4 
 9 EWR     2013     1     1     9  39.9  28.0  62.2      260      15.0 
10 EWR     2013     1     1    10  41    28.0  59.6      260      13.8 
# ℹ 732 more rows
# ℹ 5 more variables: wind_gust <dbl>, precip <dbl>, pressure <dbl>,
#   visib <dbl>, time_hour <dttm>
…
